{
    "fluentMethods": true,
    "relationships": [
        {
            "relationshipName": "user",
            "otherEntityName": "user",
            "relationshipType": "many-to-one",
            "otherEntityField": "login",
            "ownerSide": true,
            "otherEntityRelationshipName": "declarativeModel"
        }
    ],
    "fields": [
        {
            "fieldName": "graphUri",
            "fieldType": "String",
            "fieldValidateRules": [
                "pattern"
            ],
            "fieldValidateRulesPattern": "_^(?:(?:https?|ftp)://)(?:\\S+(?::\\S*)?@)?(?:(?!10(?:\\.\\d{1,3}){3})(?!127(?:\\.\\d{1,3}){3})(?!169\\.254(?:\\.\\d{1,3}){2})(?!192\\.168(?:\\.\\d{1,3}){2})(?!172\\.(?:1[6-9]|2\\d|3[0-1])(?:\\.\\d{1,3}){2})(?:[1-9]\\d?|1\\d\\d|2[01]\\d|22[0-3])(?:\\.(?:1?\\d{1,2}|2[0-4]\\d|25[0-5])){2}(?:\\.(?:[1-9]\\d?|1\\d\\d|2[0-4]\\d|25[0-4]))|(?:(?:[a-z\\x{00a1}-\\x{ffff}0-9]+-?)*[a-z\\x{00a1}-\\x{ffff}0-9]+)(?:\\.(?:[a-z\\x{00a1}-\\x{ffff}0-9]+-?)*[a-z\\x{00a1}-\\x{ffff}0-9]+)*(?:\\.(?:[a-z\\x{00a1}-\\x{ffff}]{2,})))(?::\\d{2,5})?(?:/[^\\s]*)?$_iuS"
        }
    ],
    "changelogDate": "20170630081731",
    "dto": "no",
    "service": "serviceClass",
    "entityTableName": "declarative_model",
    "pagination": "no"
}
