{
  "@id": "http://www.toreador-project.eu/TDM/project-spec/area123",
  "@context": {
    "s": "http://schema.org/",
    "tdm": "http://www.toreador-project.eu/TDM/"
  },
  "@type": "tdm:Area",
  "tdm:label": "Data Analytics",
  "tdm:incorporates": [
    {
      "@type": "tdm:Goal",
      "tdm:label": "Analytics Aim",
      "tdm:constraint": "{ \"percentage\": {\"value\":23}}",
      "tdm:incorporates": [
        {
          "@type": "tdm:Indicator",
          "tdm:label": "Task",
          "tdm:visualisationType": "Option",
          "tdm:constraint": "{}",
          "tdm:incorporates": [
            {
              "@type": "tdm:Objective",
              "tdm:label": "Link Prediction"
            },
            {
              "@type": "tdm:Objective",
              "tdm:constraint": "{}",
              "tdm:label": "Regression"
            },
            {
              "@type": "tdm:Objective",
              "tdm:constraint": "{}",
              "tdm:label": "Binary Classification"
            },
            {
              "@type": "tdm:Objective",
              "tdm:constraint": "{}",
              "tdm:label": "Multi-class classification"
            },
            {
              "@type": "tdm:Objective",
              "tdm:constraint": "{}",
              "tdm:label": "Structured output classification"
            },
            {
              "@type": "tdm:Objective",
              "tdm:constraint": "{}",
              "tdm:label": "Subgroup Discovery"
            },
            {
              "@type": "tdm:Objective",
              "tdm:constraint": "{\"timeframe\":{\"value\":10,\"unit\":\"s\"}}",
              "tdm:label": "Anomaly/Fault detection"
            },
            {
              "@type": "tdm:Objective",
              "tdm:constraint": "{}",
              "tdm:label": "Flat Clustering"
            },
            {
              "@type": "tdm:Objective",
              "tdm:constraint": "{}",
              "tdm:label": "Hierarchical Clustering"
            },
            {
              "@type": "tdm:Objective",
              "tdm:constraint": "{}",
              "tdm:label": "Crisp Clustering"
            },
            {
              "@type": "tdm:Objective",
              "tdm:constraint": "{}",
              "tdm:label": "Fuzzy Clustering"
            },
            {
              "@type": "tdm:Objective",
              "tdm:constraint": "{}",
              "tdm:label": "Sequence Discovery"
            },
            {
              "@type": "tdm:Objective",
              "tdm:constraint": "{}",
              "tdm:label": "Time Series Analysis"
            },
            {
              "@type": "tdm:Objective",
              "tdm:constraint": "{}",
              "tdm:label": "Association Rules"
            },
            {
              "@type": "tdm:Objective",
              "tdm:constraint": "{}",
              "tdm:label": "Root Cause Analysis"
            }
          ]
        },
        {
          "@type": "tdm:Indicator",
          "tdm:label": "Models",
          "tdm:constraint": "{}",
          "tdm:visualisationType": "Option",
          "tdm:incorporates": [
            {
              "@type": "tdm:Objective",
              "tdm:constraint": "{}",
              "tdm:label": "Descriptive"
            },
            {
              "@type": "tdm:Objective",
              "tdm:constraint": "{}",
              "tdm:label": "Prescriptive"
            },
            {
              "@type": "tdm:Objective",
              "tdm:constraint": "{}",
              "tdm:label": "Predictive"
            },
            {
              "@type": "tdm:Objective",
              "tdm:constraint": "{}",
              "tdm:label": "Diagnostic"
            }
          ]
        },
        {
          "@type": "tdm:Indicator",
          "tdm:label": "Learning Approach",
          "tdm:constraint": "{}",
          "tdm:visualisationType": "Option",
          "tdm:incorporates": [
            {
              "@type": "tdm:Objective",
              "tdm:constraint": "{}",
              "tdm:label": "Supervised"
            },
            {
              "@type": "tdm:Objective",
              "tdm:constraint": "{}",
              "tdm:label": "Unsupervised"
            },
            {
              "@type": "tdm:Objective",
              "tdm:constraint": "{}",
              "tdm:label": "Semi-supervised"
            }
          ]
        }
      ]
    },
    {
      "@type": "tdm:Goal",
      "tdm:constraint": "{}",
      "tdm:label": "Analytics Quality",
      "tdm:incorporates": [
        {
          "@type": "tdm:Indicator",
          "tdm:constraint": "{}",
          "tdm:label": "True Positive Rate",
          "tdm:visualisationType": "Slider",
          "tdm:incorporates": [
            {
              "@type": "tdm:Objective",
              "tdm:constraint": "{}",
              "tdm:value": 50
            }
          ]
        },
        {
          "@type": "tdm:Indicator",
          "tdm:label": "True Negative Rate",
          "tdm:constraint": "{ \"percentage\": {\"value\":23}}",
          "tdm:visualisationType": "Slider",
          "tdm:incorporates": [
            {
              "@type": "tdm:Objective",
              "tdm:constraint": "{}",
              "tdm:value": 50
            }
          ]
        },
        {
          "@type": "tdm:Indicator",
          "tdm:label": "Positive Prediction Rate",
          "tdm:constraint": "{}",
          "tdm:visualisationType": "Slider",
          "tdm:incorporates": [
            {
              "@type": "tdm:Objective",
              "tdm:constraint": "{}",
              "tdm:value": 50
            }
          ]
        },
        {
          "@type": "tdm:Indicator",
          "tdm:label": "False Positive Rate",
          "tdm:constraint": "{}",
          "tdm:visualisationType": "Slider",
          "tdm:incorporates": [
            {
              "@type": "tdm:Objective",
              "tdm:constraint": "{}",
              "tdm:value": 50
            }
          ]
        },
        {
          "@type": "tdm:Indicator",
          "tdm:label": "Root Mean Square Error",
          "tdm:constraint": "{}",
          "tdm:visualisationType": "Slider",
          "tdm:incorporates": [
            {
              "@type": "tdm:Objective",
              "tdm:constraint": "{}",
              "tdm:value": 50
            }
          ]
        },
        {
          "@type": "tdm:Indicator",
          "tdm:label": "Mean Absolute Error",
          "tdm:constraint": "{}",
          "tdm:visualisationType": "Slider",
          "tdm:incorporates": [
            {
              "@type": "tdm:Objective",
              "tdm:constraint": "{}",
              "tdm:value": 50
            }
          ]
        },
        {
          "@type": "tdm:Indicator",
          "tdm:label": "Overall Accuracy",
          "tdm:constraint": "{}",
          "tdm:visualisationType": "Slider",
          "tdm:incorporates": [
            {
              "@type": "tdm:Objective",
              "tdm:constraint": "{}",
              "tdm:value": 50
            }
          ]
        },
        {
          "@type": "tdm:Indicator",
          "tdm:label": "K Coefficient",
          "tdm:constraint": "{}",
          "tdm:visualisationType": "Slider",
          "tdm:incorporates": [
            {
              "@type": "tdm:Objective",
              "tdm:constraint": "{}",
              "tdm:value": 50
            }
          ]
        }
      ]
    }
  ]
}