{
  "@id": "http://www.toreador-project.eu/TDM/project-spec/area123",
  "@context": {
    "s": "http://schema.org/",
    "tdm": "http://www.toreador-project.eu/TDM/"
  },
  "@type": "tdm:Area",
  "tdm:label": "Data Processing",
  "tdm:incorporates": [
    {
      "@type": "tdm:Goal",
      "tdm:label": "Mode",
      "tdm:incorporates": [
        {
          "@type": "tdm:Indicator",
          "tdm:label": "Analysis Goal",
          "tdm:constraint": "{}",
          "tdm:visualisationType": "Option",
          "tdm:incorporates": [
            {
              "@type": "tdm:Objective",
              "tdm:constraint": "{}",
              "tdm:label": "Real-Time"
            },
            {
              "@type": "tdm:Objective",
              "tdm:constraint": "{}",
              "tdm:label": "Near Real-Time"
            },
            {
              "@type": "tdm:Objective",
              "tdm:constraint": "{}",
              "tdm:label": "Batch"
            }
          ]
        },
        {
          "@type": "tdm:Indicator",
          "tdm:label": "Interaction",
          "tdm:constraint": "{}",
          "tdm:visualisationType": "Option",
          "tdm:incorporates": [
            {
              "@type": "tdm:Objective",
              "tdm:constraint": "{}",
              "tdm:label": "Dynamic"
            },
            {
              "@type": "tdm:Objective",
              "tdm:constraint": "{}",
              "tdm:label": "Multiple"
            },
            {
              "@type": "tdm:Objective",
              "tdm:constraint": "{}",
              "tdm:label": "Single"
            }
          ]
        }
      ]
    },
    {
      "@type": "tdm:Goal",
      "tdm:label": "Performance",
      "tdm:constraint": "{}",
      "tdm:incorporates": [
        {
          "@type": "tdm:Indicator",
          "tdm:label": "Data Storage Consistency",
          "tdm:constraint": "{}",
          "tdm:visualisationType": "Slider",
          "tdm:incorporates": [
            {
              "@type": "tdm:Objective",
              "tdm:constraint": "{}",
              "tdm:value": 50
            }
          ]
        },
        {
          "@type": "tdm:Indicator",
          "tdm:label": "Elasticity",
          "tdm:constraint": "{}",
          "tdm:visualisationType": "Slider",
          "tdm:incorporates": [
            {
              "@type": "tdm:Objective",
              "tdm:constraint": "{}",
              "tdm:value": 50
            }
          ]
        },
        {
          "@type": "tdm:Indicator",
          "tdm:label": "Latency",
          "tdm:constraint": "{}",
          "tdm:visualisationType": "Slider",
          "tdm:incorporates": [
            {
              "@type": "tdm:Objective",
              "tdm:constraint": "{}",
              "tdm:value": 50
            }
          ]
        },
        {
          "@type": "tdm:Indicator",
          "tdm:label": "Availability",
          "tdm:constraint": "{}",
          "tdm:visualisationType": "Slider",
          "tdm:incorporates": [
            {
              "@type": "tdm:Objective",
              "tdm:constraint": "{}",
              "tdm:value": 50
            }
          ]
        },
        {
          "@type": "tdm:Indicator",
          "tdm:label": "Operational Flexibility",
          "tdm:constraint": "{}",
          "tdm:visualisationType": "Slider",
          "tdm:incorporates": [
            {
              "@type": "tdm:Objective",
              "tdm:constraint": "{}",
              "tdm:value": 50
            }
          ]
        },
        {
          "@type": "tdm:Indicator",
          "tdm:label": "Security",
          "tdm:constraint": "{}",
          "tdm:visualisationType": "Slider",
          "tdm:incorporates": [
            {
              "@type": "tdm:Objective",
              "tdm:constraint": "{}",
              "tdm:value": 50
            }
          ]
        }
      ]
    }
  ]
}