{
  "@id": "http://www.toreador-project.eu/TDM#project-spec/areaDisplay",
  "@context": {
    "s": "http://schema.org/",
    "tdm": "http://www.toreador-project.eu/TDM#",
    "rdfs": "http://www.w3.org/2000/01/rdf-schema#"
  },
  "@type": "tdm:Area",
  "rdfs:label": "Data Display and Reporting",
  "tdm:incorporates": [
    {
      "@type": "tdm:Goal",
      "rdfs:label": "Data Model",
      "tdm:constraint": "{ \"percentage\": {\"value\":23}}",
      "tdm:incorporates": [
        {
          "@type": "tdm:Indicator",
          "rdfs:label": "Dimensionality",
          "tdm:visualisationType": "Option",
          "tdm:incorporates": [
            {
              "@type": "tdm:Objective",
              "tdm:constraint": "{}",
              "rdfs:label": "1D"
            },
            {
              "@type": "tdm:Objective",
              "tdm:constraint": "{}",
              "rdfs:label": "2D"
            },
            {
              "@type": "tdm:Objective",
              "tdm:constraint": "{}",
              "rdfs:label": "nD"
            },
            {
              "@type": "tdm:Objective",
              "tdm:constraint": "{}",
              "rdfs:label": "tree"
            },
            {
              "@type": "tdm:Objective",
              "tdm:constraint": "{}",
              "rdfs:label": "graph"
            }
          ]
        },
        {
          "@type": "tdm:Indicator",
          "rdfs:label": "Data Cardinality",
          "tdm:constraint": "{}",
          "tdm:visualisationType": "Option",
          "tdm:incorporates": [
            {
              "@type": "tdm:Objective",
              "tdm:constraint": "{}",
              "rdfs:label": "Low"
            },
            {
              "@type": "tdm:Objective",
              "tdm:constraint": "{}",
              "rdfs:label": "High"
            }
          ]
        },
        {
          "@type": "tdm:Indicator",
          "rdfs:label": "Independent Data Type",
          "tdm:constraint": "{}",
          "tdm:visualisationType": "Option",
          "tdm:incorporates": [
            {
              "@type": "tdm:Objective",
              "tdm:constraint": "{}",
              "rdfs:label": "Interval"
            },
            {
              "@type": "tdm:Objective",
              "tdm:constraint": "{}",
              "rdfs:label": "Ordinal"
            },
            {
              "@type": "tdm:Objective",
              "tdm:constraint": "{}",
              "rdfs:label": "Nominal"
            },
            {
              "@type": "tdm:Objective",
              "tdm:constraint": "{}",
              "rdfs:label": "Ratio"
            }
          ]
        },
        {
          "@type": "tdm:Indicator",
          "rdfs:label": "Dependent Data Type",
          "tdm:constraint": "{}",
          "tdm:visualisationType": "Option",
          "tdm:incorporates": [
            {
              "@type": "tdm:Objective",
              "tdm:constraint": "{}",
              "rdfs:label": "Interval"
            },
            {
              "@type": "tdm:Objective",
              "tdm:constraint": "{}",
              "rdfs:label": "Ordinal"
            },
            {
              "@type": "tdm:Objective",
              "tdm:constraint": "{}",
              "rdfs:label": "Nominal"
            },
            {
              "@type": "tdm:Objective",
              "tdm:constraint": "{}",
              "rdfs:label": "Ratio"
            }
          ]
        }
      ]
    },
    {
      "@type": "tdm:Feature",
      "rdfs:label": "Operativity",
      "tdm:constraint": "{}",
      "tdm:incorporates": [
        {
          "@type": "tdm:Feature",
          "rdfs:label": "Interaction",
          "tdm:constraint": "{}",
          "tdm:visualisationType": "Option",
          "tdm:incorporates": [
            {
              "@type": "tdm:Feature",
              "tdm:constraint": "{}",
              "rdfs:label": "Filter"
            },
            {
              "@type": "tdm:Feature",
              "tdm:constraint": "{}",
              "rdfs:label": "Zoom"
            },
            {
              "@type": "tdm:Feature",
              "tdm:constraint": "{}",
              "rdfs:label": "Overview"
            },
            {
              "@type": "tdm:Feature",
              "tdm:constraint": "{}",
              "rdfs:label": "Details-on-demand"
            },
            {
              "@type": "tdm:Feature",
              "tdm:constraint": "{}",
              "rdfs:label": "Extract"
            },
            {
              "@type": "tdm:Feature",
              "tdm:constraint": "{}",
              "rdfs:label": "Projection"
            },
            {
              "@type": "tdm:Feature",
              "tdm:constraint": "{}",
              "rdfs:label": "History"
            },
            {
              "@type": "tdm:Feature",
              "tdm:constraint": "{}",
              "rdfs:label": "Link&Brush"
            },
            {
              "@type": "tdm:Feature",
              "tdm:constraint": "{}",
              "rdfs:label": "Distortion"
            }
          ]
        },
        {
          "@type": "tdm:Feature",
          "rdfs:label": "User",
          "tdm:constraint": "{}",
          "tdm:visualisationType": "Option",
          "tdm:incorporates": [
            {
              "@type": "tdm:Feature",
              "tdm:constraint": "{}",
              "rdfs:label": "Techie"
            },
            {
              "@type": "tdm:Feature",
              "tdm:constraint": "{}",
              "rdfs:label": "Lay-User"
            }
          ]
        },
        {
          "@type": "tdm:Feature",
          "rdfs:label": "Goal",
          "tdm:constraint": "{}",
          "tdm:visualisationType": "Option",
          "tdm:incorporates": [
            {
              "@type": "tdm:Feature",
              "tdm:constraint": "{}",
              "rdfs:label": "Trends"
            },
            {
              "@type": "tdm:Feature",
              "tdm:constraint": "{}",
              "rdfs:label": "Distribution"
            },
            {
              "@type": "tdm:Feature",
              "tdm:constraint": "{}",
              "rdfs:label": "Relationship"
            },
            {
              "@type": "tdm:Feature",
              "tdm:constraint": "{}",
              "rdfs:label": "Comparison"
            },
            {
              "@type": "tdm:Feature",
              "tdm:constraint": "{}",
              "rdfs:label": "Cluster/categorize"
            },
            {
              "@type": "tdm:Feature",
              "tdm:constraint": "{}",
              "rdfs:label": "Composition"
            },
            {
              "@type": "tdm:Feature",
              "tdm:constraint": "{}",
              "rdfs:label": "Geospatial"
            },
            {
              "@type": "tdm:Feature",
              "tdm:constraint": "{}",
              "rdfs:label": "Order/Rank/Sort"
            }
          ]
        }
      ]
    }
  ]
}